Date,Lat,Lon,Title,Description,Category,,
02/02/2009,30.2099,67.0225,Sayed Hashim,"UNHCR driver, Sayed Hashim, was injured during the kidnapping of his passenger, UNHCR sub-office chief John Soloki. Sayed Hashim died later in hospital.",Political/Conflict,,
15/01/2009,11.5434,104.8984,Jiri Zivny,"On 15 January Jiri Zivny, a Canadian aid worker with International Humanitarian Hope Society dies from injuries sustained in a mugging the previous week. Neither he nor his organization had medevac coverage.",Criminal,,
08/01/2009,31.524995,34.458618,Civilian contractor,On 8 January a civilian contractor for the UN Palestinian Refugees Agency (UNRWA) was reportedly killed when a UN convoy on its way to pick up relief supplies was hit by two tank shells in northern Gaza on Thursday according to a UN spokesman. Two other contractors were injured.,Crossfire,,
,,,,,,,
,,,,,,,
